{
	"id": "5bf1cdb9-5296-4c88-8b35-11e18fe5da84",
	"name": "digiclass-local",
	"values": [
		{
			"key": "keycloak_host",
			"value": "",
			"type": "default",
			"enabled": true
		},
		{
			"key": "realm",
			"value": "",
			"type": "default",
			"enabled": true
		},
		{
			"key": "app_client",
			"value": "",
			"type": "default",
			"enabled": true
		},
		{
			"key": "username",
			"value": "",
			"type": "default",
			"enabled": true
		},
		{
			"key": "password",
			"value": "",
			"type": "default",
			"enabled": true
		},
		{
			"key": "refresh_token",
			"value": "",
			"type": "any",
			"enabled": true
		},
		{
			"key": "access_token",
			"value": "",
			"type": "any",
			"enabled": true
		},
		{
			"key": "backend_client",
			"value": "",
			"type": "default",
			"enabled": true
		},
		{
			"key": "backend_client_secret",
			"value": "",
			"type": "default",
			"enabled": true
		},
		{
			"key": "api_host",
			"value": "",
			"type": "default",
			"enabled": true
		}
	],
	"_postman_variable_scope": "environment",
	"_postman_exported_at": "2023-07-16T18:24:24.255Z",
	"_postman_exported_using": "Postman/10.14.9"
}